Untitled
…
### Most detailed possible, stimulus level:

ds %>% 
    filter(ID  %in% ID_here) %>%
    group_by(Cond, stimulus) %>%
    summarize(Mx = mean(x), My = mean(y), SDx = sd(x), SDy = sd(y), nStim =length(stimulus)) 

`summarise()` has grouped output by 'Cond'. You can override using the
`.groups` argument.

# A tibble: 29 × 7
# Groups:   Cond [3]
   Cond  stimulus    Mx     My   SDx    SDy nStim
   <chr> <chr>    <dbl>  <dbl> <dbl>  <dbl> <int>
 1 month April     300.  379   232.  126.       3
 2 month August    662   579.  466.   34.0      3
 3 month December 1844. 1001.   10.7   9.02     3
 4 month February  698.   87   311.   20.1      3
 5 month January   104.   94    79.1 102.       3
 6 month July      325.  529.  314.   22.7      3
 7 month June     1052.  431.  584.  124.       3
 8 month March    1377    88.3 590.   37.1      3
 9 month May       700.  364   391.   59.0      3
10 month November 1084. 1000.  157.   20.2      3
# ℹ 19 more rows
…
# Illustrations

# Apply per group
ds %>%
  filter(ID  %in% ID_here) %>%
  group_by(ID, stimulus) %>%
  mutate(triangle_area = triangle_area(x, y))

# A tibble: 87 × 38
# Groups:   ID, stimulus [29]
   stimulus     x     y width height group ID    dataSource trial_index trial_id
   <chr>    <dbl> <dbl> <dbl>  <dbl> <chr> <chr> <chr>            <dbl>    <dbl>
 1 January     56    38  1920   1057 Syn   45776 Ward                76  1426066
 2 January     60    32  1920   1057 Syn   45776 Ward                48  1426038
 3 January    195   212  1920   1057 Syn   45776 Ward                20  1425987
 4 February   353   110  1920   1057 Syn   45776 Ward                 4  1425960
 5 February   783    73  1920   1057 Syn   45776 Ward                43  1426032
 6 February   957    78  1920   1057 Syn   45776 Ward                71  1426061
 7 March      696   124  1920   1057 Syn   45776 Ward                 5  1425961
 8 March     1710    50  1920   1057 Syn   45776 Ward                69  1426059
 9 March     1725    91  1920   1057 Syn   45776 Ward                30  1426006
10 April      151   292  1920   1057 Syn   45776 Ward                34  1426014
# ℹ 77 more rows
# ℹ 28 more variables: session_id <dbl>, rt <dbl>, Cond <chr>, Nrep <int>,
#   repetition <int>, X_mean <dbl>, Y_mean <dbl>, x_zs <dbl[,1]>,
#   y_zs <dbl[,1]>, X_mean_zs <dbl>, Y_mean_zs <dbl>, triangle_area <dbl>,
#   Screen_area <dbl>, Consistency <dbl>, xSc <dbl>, ySc <dbl>, SD_IDx <dbl>,
#   SD_IDy <dbl>, nSegments <dbl>, nLineCross <dbl>, meanLineCross <dbl>,
#   GA_lineInter <dbl>, mean_lineInter <dbl>, SynLine <lgl>, SynQuest <lgl>, …
…
